{
  "name": "Jugada",
  "options": {
    "idInjection": false,
    "mysql": {
      "schema": "lotta",
      "table": "jugada"
    },
    "relations": {
      "jugadaSucursalesrel": {
        "model": "Sucursal",
        "type": "belongsTo",
        "foreignKey": "sucursalesCodigo"
      }
    }
  },
  "properties": {
    "codigo": {
      "type": "Number",
      "id": 1,
      "required": true,
      "length": null,
      "precision": 10,
      "scale": 0,
      "mysql": {
        "columnName": "codigo",
        "dataType": "int",
        "dataLength": null,
        "dataPrecision": 10,
        "dataScale": 0,
        "nullable": "N"
      }
    },
    "nombreCajero": {
      "type": "String",
      "required": true,
      "length": 128,
      "precision": null,
      "scale": null,
      "mysql": {
        "columnName": "nombre_cajero",
        "dataType": "varchar",
        "dataLength": 128,
        "dataPrecision": null,
        "dataScale": null,
        "nullable": "N"
      }
    },
    "sucursal": {
      "type": "String",
      "required": true,
      "length": 128,
      "precision": null,
      "scale": null,
      "mysql": {
        "columnName": "sucursal",
        "dataType": "varchar",
        "dataLength": 128,
        "dataPrecision": null,
        "dataScale": null,
        "nullable": "N"
      }
    },
    "codigoTicket": {
      "type": "String",
      "required": true,
      "length": 12,
      "precision": null,
      "scale": null,
      "mysql": {
        "columnName": "codigo_ticket",
        "dataType": "varchar",
        "dataLength": 12,
        "dataPrecision": null,
        "dataScale": null,
        "nullable": "N"
      }
    },
    "montoApostado": {
      "type": "Number",
      "required": true,
      "length": null,
      "precision": 12,
      "scale": 2,
      "mysql": {
        "columnName": "monto_apostado",
        "dataType": "decimal",
        "dataLength": null,
        "dataPrecision": 12,
        "dataScale": 2,
        "nullable": "N"
      }
    },
    "posibleGanancia": {
      "type": "Number",
      "required": true,
      "length": null,
      "precision": 12,
      "scale": 2,
      "mysql": {
        "columnName": "posible_ganancia",
        "dataType": "decimal",
        "dataLength": null,
        "dataPrecision": 12,
        "dataScale": 2,
        "nullable": "N"
      }
    },
    "ganador": {
      "type": "Number",
      "required": true,
      "length": null,
      "precision": 3,
      "scale": 0,
      "mysql": {
        "columnName": "ganador",
        "dataType": "tinyint",
        "dataLength": null,
        "dataPrecision": 3,
        "dataScale": 0,
        "nullable": "N"
      }
    },
    "pagado": {
      "type": "Number",
      "required": true,
      "length": null,
      "precision": 3,
      "scale": 0,
      "mysql": {
        "columnName": "pagado",
        "dataType": "tinyint",
        "dataLength": null,
        "dataPrecision": 3,
        "dataScale": 0,
        "nullable": "N"
      }
    },
    "fechaJugada": {
      "type": "Date",
      "required": true,
      "length": null,
      "precision": null,
      "scale": null,
      "mysql": {
        "columnName": "fecha_jugada",
        "dataType": "timestamp",
        "dataLength": null,
        "dataPrecision": null,
        "dataScale": null,
        "nullable": "N"
      }
    },
    "sucursalesCodigo": {
      "type": "Number",
      "required": true,
      "length": null,
      "precision": 10,
      "scale": 0,
      "mysql": {
        "columnName": "Sucursales_codigo",
        "dataType": "int",
        "dataLength": null,
        "dataPrecision": 10,
        "dataScale": 0,
        "nullable": "N"
      }
    }
  },
  "validations": [],
  "relations": {},
  "acls": [],
  "methods": {}
}
