{
  "name": "Loteria",
  "options": {
    "idInjection": false,
    "mysql": {
      "schema": "lotta",
      "table": "loteria"
    },
    "relations": {}
  },
  "properties": {
    "codigo": {
      "type": "Number",
      "id": 1,
      "required": true,
      "length": null,
      "precision": 10,
      "scale": 0,
      "mysql": {
        "columnName": "codigo",
        "dataType": "int",
        "dataLength": null,
        "dataPrecision": 10,
        "dataScale": 0,
        "nullable": "N"
      }
    },
    "nombre": {
      "type": "String",
      "required": true,
      "length": 64,
      "precision": null,
      "scale": null,
      "mysql": {
        "columnName": "nombre",
        "dataType": "varchar",
        "dataLength": 64,
        "dataPrecision": null,
        "dataScale": null,
        "nullable": "N"
      }
    },
    "fechaCreacion": {
      "type": "Date",
      "required": true,
      "length": null,
      "precision": null,
      "scale": null,
      "mysql": {
        "columnName": "fecha_creacion",
        "dataType": "timestamp",
        "dataLength": null,
        "dataPrecision": null,
        "dataScale": null,
        "nullable": "N"
      }
    },
    "fechaActualizacion": {
      "type": "Date",
      "required": true,
      "length": null,
      "precision": null,
      "scale": null,
      "mysql": {
        "columnName": "fecha_actualizacion",
        "dataType": "timestamp",
        "dataLength": null,
        "dataPrecision": null,
        "dataScale": null,
        "nullable": "N"
      }
    }
  },
  "validations": [],
  "relations": {},
  "acls": [],
  "methods": {}
}
